%YAML 1.1
%TAG !u! tag:unity3d.com,2011:
--- !u!1045 &1
EditorBuildSettings:
  m_ObjectHideFlags: 0
  serializedVersion: 2
  m_Scenes:
  - enabled: 1
    path: Assets/Scenes/StartScene.unity
    guid: d5d5c8cd9e441ad45b82cd1b0de0b5d9
  - enabled: 1
    path: Assets/Scenes/LevelOne.unity
    guid: 2cda990e2423bbf4892e6590ba056729
  m_configObjects: {}
